…
``` r
library(dlookr)
#> 
#> Attaching package: 'dlookr'
#> The following object is masked from 'package:base':
#> 
#>     transform
data(flights)
dim(flights)
#> [1] 3000   19
flights
#> # A tibble: 3,000 × 19
#>     year month   day dep_time sched_dep_time dep_delay arr_time sched_arr_time
#>    <int> <int> <int>    <int>          <int>     <dbl>    <int>          <int>
#>  1  2013     6    17     1033           1040        -7     1246           1309
#>  2  2013    12    26     1343           1329        14     1658           1624
#>  3  2013     8    26     1258           1218        40     1510           1516
#>  4  2013     8    17     1558           1600        -2     1835           1849
#>  5  2013     2    17       NA           1500        NA       NA           1653
#>  6  2013     6    30      905            900         5     1200           1206
#>  7  2013     9    15     1017           1025        -8     1245           1325
#>  8  2013     5     7     1623           1627        -4     1819           1818
#>  9  2013     3    14      703            645        18      854            846
#> 10  2013     9     4      739            740        -1     1030           1055
#> # ℹ 2,990 more rows
#> # ℹ 11 more variables: arr_delay <dbl>, carrier <chr>, flight <int>,
#> #   tailnum <chr>, origin <chr>, dest <chr>, air_time <dbl>, distance <dbl>,
#> #   hour <dbl>, minute <dbl>, time_hour <dttm>
```
…
- `variables` : variable names
- `levels`: level names
- `N` : number of observation
- `freq` : number of observation at the levels
- `ratio` : percentage of observation at the levels
- `rank` : rank of occupancy ratio of levels

\``diagnose_category()` can diagnose all categorical variables of
`flights` as follows.:

``` r
diagnose_category(flights)
#> # A tibble: 43 × 6
#>    variables levels     N  freq ratio  rank
#>    <chr>     <chr>  <int> <int> <dbl> <int>
#>  1 carrier   UA      3000   551 18.4      1
#>  2 carrier   EV      3000   493 16.4      2
#>  3 carrier   B6      3000   490 16.3      3
#>  4 carrier   DL      3000   423 14.1      4
#>  5 carrier   AA      3000   280  9.33     5
#>  6 carrier   MQ      3000   214  7.13     6
#>  7 carrier   US      3000   182  6.07     7
#>  8 carrier   9E      3000   151  5.03     8
#>  9 carrier   WN      3000   105  3.5      9
#> 10 carrier   VX      3000    54  1.8     10
#> # ℹ 33 more rows
```
…
#### EDA of bivariate data

##### Calculation of `correlation coefficient` using `correlate()`

`correlate()` calculates the correlation coefficient of all combinations
of `carseats` numerical variables as follows:

``` r
correlate(carseats)
#> # A tibble: 56 × 3
#>    var1        var2      coef_corr
#>    <fct>       <fct>         <dbl>
#>  1 CompPrice   Sales        0.0641
#>  2 Income      Sales        0.151 
#>  3 Advertising Sales        0.270 
#>  4 Population  Sales        0.0505
#>  5 Price       Sales       -0.445 
#>  6 Age         Sales       -0.232 
#>  7 Education   Sales       -0.0520
#>  8 Sales       CompPrice    0.0641
#>  9 Income      CompPrice   -0.0761
#> 10 Advertising CompPrice   -0.0242
#> # ℹ 46 more rows
```

The following example performs a normality test only on combinations
that include several selected variables.

``` r
# Select columns by name
correlate(carseats, Sales, CompPrice, Income)
#> # A tibble: 21 × 3
#>    var1      var2        coef_corr
#>    <fct>     <fct>           <dbl>
#>  1 CompPrice Sales          0.0641
#>  2 Income    Sales          0.151 
#>  3 Sales     CompPrice      0.0641
#>  4 Income    CompPrice     -0.0761
#>  5 Sales     Income         0.151 
#>  6 CompPrice Income        -0.0761
#>  7 Sales     Advertising    0.270 
#>  8 CompPrice Advertising   -0.0242
#>  9 Income    Advertising    0.0435
#> 10 Sales     Population     0.0505
#> # ℹ 11 more rows
```
…
