Exploratory Data Analysis
…
medicosts %>%
  group_by(sex, smoker) %>% 
  describe(bmi, charges) 
# A tibble: 12 × 28
  described_variables sex    smoker     n    na  mean    sd se_mean   IQR
  <chr>               <fct>  <fct>  <int> <int> <dbl> <dbl>   <dbl> <dbl>
1 bmi                 female no       536     8  30.6  5.91   0.255  7.96
2 bmi                 female yes      114     0  29.7  6.60   0.618  9.76
3 bmi                 female <NA>       4     0  23.4  4.95   2.48   3.85
4 bmi                 male   no       503    10  30.7  6.21   0.277  8.28
# ℹ 8 more rows
# ℹ 19 more variables: skewness <dbl>, kurtosis <dbl>, p00 <dbl>, p01 <dbl>,
#   p05 <dbl>, p10 <dbl>, p20 <dbl>, p25 <dbl>, p30 <dbl>, p40 <dbl>,
#   p50 <dbl>, p60 <dbl>, p70 <dbl>, p75 <dbl>, p80 <dbl>, p90 <dbl>,
#   p95 <dbl>, p99 <dbl>, p100 <dbl>
…
EDA of bivariate data

Calculation of correlation coefficient using
correlate()

correlate() calculates the correlation coefficient of
all combinations of medicosts numerical variables as
follows:

correlate(medicosts)
# A tibble: 12 × 3
  var1     var2  coef_corr
  <fct>    <fct>     <dbl>
1 bmi      age      0.112 
2 children age      0.0425
3 charges  age      0.299 
4 age      bmi      0.112 
# ℹ 8 more rows

The following example performs a normality test only on combinations
that include several selected variables.

# Select columns by name
correlate(medicosts, bmi, children, charges)
# A tibble: 9 × 3
  var1     var2  coef_corr
  <fct>    <fct>     <dbl>
1 bmi      age      0.112 
2 children age      0.0425
3 charges  age      0.299 
4 children bmi      0.0125
# ℹ 5 more rows

# Select all columns between year and day (include)
correlate(medicosts, bmi:charges)
# A tibble: 9 × 3
  var1     var2  coef_corr
  <fct>    <fct>     <dbl>
1 bmi      age      0.112 
2 children age      0.0425
3 charges  age      0.299 
4 children bmi      0.0125
# ℹ 5 more rows
…
correlate() produces
two pairs of variables. So the following example uses
filter() to get the correlation coefficient for
a pair of variable combinations:

medicosts %>%
  correlate(bmi:charges) %>%
  filter(as.integer(var1) > as.integer(var2))
# A tibble: 6 × 3
  var1     var2  coef_corr
  <fct>    <fct>     <dbl>
1 bmi      age      0.112 
2 children age      0.0425
3 charges  age      0.299 
4 children bmi      0.0125
# ℹ 2 more rows

The correlate() also supports the
group_by() function syntax in the dplyr
package.

tab_corr <- medicosts %>%
  filter(region == "northwest") %>%
  group_by(sex, smoker) %>%
  correlate(charges) %>%
  filter(abs(coef_corr) > 0.5)

tab_corr
# A tibble: 8 × 5
  sex    smoker var1    var2  coef_corr
  <fct>  <fct>  <fct>   <fct>     <dbl>
1 female no     charges age       0.570
2 female yes    charges bmi       0.724
3 female <NA>   charges age       1    
4 female <NA>   charges bmi       1    
# ℹ 4 more rows
…
