Tools for Data Diagnosis, Exploration, Transformation • dlookr
…
Data: nycflights13

To illustrate basic use of the dlookr package, use the
flights data from the nycflights13 package.
Once loading nycflights13 library, the flights
data frame is available. The flights data frame contains
departure and arrival information on all flights departing from
NYC(i.e. JFK, LGA or EWR) in 2013.

library(nycflights13)
dim(flights)
#> [1] 336776     19
flights
#> # A tibble: 336,776 × 19
#>     year month   day dep_time sched_dep_time dep_delay arr_time sched_arr_time
#>    <int> <int> <int>    <int>          <int>     <dbl>    <int>          <int>
#>  1  2013     1     1      517            515         2      830            819
#>  2  2013     1     1      533            529         4      850            830
#>  3  2013     1     1      542            540         2      923            850
#>  4  2013     1     1      544            545        -1     1004           1022
#>  5  2013     1     1      554            600        -6      812            837
#>  6  2013     1     1      554            558        -4      740            728
#>  7  2013     1     1      555            600        -5      913            854
#>  8  2013     1     1      557            600        -3      709            723
#>  9  2013     1     1      557            600        -3      838            846
#> 10  2013     1     1      558            600        -2      753            745
#> # … with 336,766 more rows, and 11 more variables: arr_delay <dbl>,
#> #   carrier <chr>, flight <int>, tailnum <chr>, origin <chr>, dest <chr>,
#> #   air_time <dbl>, distance <dbl>, hour <dbl>, minute <dbl>, time_hour <dttm>
…
levels: level names

N : number of observation

freq : number of observation at the levels

ratio : percentage of observation at the levels

rank : rank of occupancy ratio of levels

`diagnose_category() can diagnose all categorical
variables of flights as follows.:

diagnose_category(flights)
#> # A tibble: 43 × 6
#>    variables levels      N  freq ratio  rank
#>    <chr>     <chr>   <int> <int> <dbl> <int>
#>  1 carrier   UA     336776 58665 17.4      1
#>  2 carrier   B6     336776 54635 16.2      2
#>  3 carrier   EV     336776 54173 16.1      3
#>  4 carrier   DL     336776 48110 14.3      4
#>  5 carrier   AA     336776 32729  9.72     5
#>  6 carrier   MQ     336776 26397  7.84     6
#>  7 carrier   US     336776 20536  6.10     7
#>  8 carrier   9E     336776 18460  5.48     8
#>  9 carrier   WN     336776 12275  3.64     9
#> 10 carrier   VX     336776  5162  1.53    10
#> # … with 33 more rows
…
EDA of bivariate data

Calculation of correlation coefficient using
correlate()

correlate() calculates the correlation coefficient of
all combinations of carseats numerical variables as
follows:

correlate(carseats)
#> # A tibble: 56 × 3
#>    var1        var2      coef_corr
#>    <fct>       <fct>         <dbl>
#>  1 CompPrice   Sales        0.0641
#>  2 Income      Sales        0.151 
#>  3 Advertising Sales        0.270 
#>  4 Population  Sales        0.0505
#>  5 Price       Sales       -0.445 
#>  6 Age         Sales       -0.232 
#>  7 Education   Sales       -0.0520
#>  8 Sales       CompPrice    0.0641
#>  9 Income      CompPrice   -0.0761
#> 10 Advertising CompPrice   -0.0242
#> # … with 46 more rows

The following example performs a normality test only on combinations
that include several selected variables.

# Select columns by name
correlate(carseats, Sales, CompPrice, Income)
#> # A tibble: 21 × 3
#>    var1      var2        coef_corr
#>    <fct>     <fct>           <dbl>
#>  1 CompPrice Sales          0.0641
#>  2 Income    Sales          0.151 
#>  3 Sales     CompPrice      0.0641
#>  4 Income    CompPrice     -0.0761
#>  5 Sales     Income         0.151 
#>  6 CompPrice Income        -0.0761
#>  7 Sales     Advertising    0.270 
#>  8 CompPrice Advertising   -0.0242
#>  9 Income    Advertising    0.0435
#> 10 Sales     Population     0.0505
#> # … with 11 more rows
…
