Data quality diagnosis • dlookr
…
data table : tbl_df class.

table of DBMS : table of the DBMS through tbl_dbi.

Use dplyr as the back-end interface for any DBI-compatible database.

Data: nycflights13

To illustrate basic use of the dlookr package, use the flights data from the nycflights13 package. The flights data frame is data about departure and arrival on all flights departing from NYC in 2013.

library(nycflights13)
dim(flights)
[1] 336776     19
flights
# A tibble: 336,776 x 19
   year month   day dep_time sched_dep_time dep_delay arr_time sched_arr_time
  <int> <int> <int>    <int>          <int>     <dbl>    <int>          <int>
1  2013     1     1      517            515         2      830            819
2  2013     1     1      533            529         4      850            830
3  2013     1     1      542            540         2      923            850
4  2013     1     1      544            545        -1     1004           1022
# … with 336,772 more rows, and 11 more variables: arr_delay <dbl>,
#   carrier <chr>, flight <int>, tailnum <chr>, origin <chr>, dest <chr>,
#   air_time <dbl>, distance <dbl>, hour <dbl>, minute <dbl>, time_hour <dttm>
…
types : the data type of the variables

missing_count : number of missing values

missing_percent : percentage of missing values

unique_count : number of unique values

unique_rate : rate of unique value. unique_count / number of observation

For example, we can diagnose all variables in flights:

diagnose(flights)
# A tibble: 19 x 6
  variables types   missing_count missing_percent unique_count unique_rate
  <chr>     <chr>           <int>           <dbl>        <int>       <dbl>
1 year      integer             0            0               1  0.00000297
2 month     integer             0            0              12  0.0000356 
3 day       integer             0            0              31  0.0000920 
4 dep_time  integer          8255            2.45         1319  0.00392   
# … with 15 more rows
…
  <chr>     <chr>           <int>           <dbl>        <int>       <dbl>
1 year      integer             0               0            1  0.00000297
2 month     integer             0               0           12  0.0000356 
3 day       integer             0               0           31  0.0000920 
# Select all columns between year and day (include)
diagnose(flights, year:day)
# A tibble: 3 x 6
  variables types   missing_count missing_percent unique_count unique_rate
  <chr>     <chr>           <int>           <dbl>        <int>       <dbl>
1 year      integer             0               0            1  0.00000297
2 month     integer             0               0           12  0.0000356 
3 day       integer             0               0           31  0.0000920 
# Select all columns except those from year to day (exclude)
diagnose(flights, -(year:day))
# A tibble: 16 x 6
  variables      types   missing_count missing_percent unique_count unique_rate
  <chr>          <chr>           <int>           <dbl>        <int>       <dbl>
1 dep_time       integer          8255            2.45         1319     0.00392
2 sched_dep_time integer             0            0            1021     0.00303
3 dep_delay      numeric          8255            2.45          528     0.00157
4 arr_time       integer          8713            2.59         1412     0.00419
# … with 12 more rows

By using with dplyr, variables including missing values can be sorted by the weight of missing values.:

flights %>%
  diagnose() %>%
  select(-unique_count, -unique_rate) %>% 
  filter(missing_count > 0) %>% 
  arrange(desc(missing_count))
# A tibble: 6 x 4
  variables types   missing_count missing_percent
  <chr>     <chr>           <int>           <dbl>
1 arr_delay numeric          9430            2.80
2 air_time  numeric          9430            2.80
3 arr_time  integer          8713            2.59
4 dep_time  integer          8255            2.45
# … with 2 more rows
…
minus : number of observations with negative numbers

outlier : number of outliers

The summary() function summarizes the distribution of individual variables in the data frame and outputs it to the console. The summary values of numeric variables are min, Q1, mean, median, Q3 and max, which help to understand the distribution of data.

However, the result displayed on the console has the disadvantage that the analyst has to look at it with the eyes. However, when the summary information is returned in a data frame structure such as tbl_df, the scope of utilization is expanded. diagnose_numeric() supports this.

zero, minus, and outlier are useful measures to diagnose data integrity. For example, numerical data in some cases cannot have zero or negative numbers. A numeric variable called employee salary cannot have negative numbers or zeros. Therefore, this variable should be checked for the inclusion of zero or negative numbers in the data diagnosis process.

diagnose_numeric() can diagnose all numeric variables of flights as follows.:

diagnose_numeric(flights)
# A tibble: 14 x 10
  variables   min    Q1    mean median    Q3   max  zero minus outlier
  <chr>     <dbl> <dbl>   <dbl>  <dbl> <dbl> <dbl> <int> <int>   <int>
1 year       2013  2013 2013      2013  2013  2013     0     0       0
2 month         1     4    6.55      7    10    12     0     0       0
3 day           1     8   15.7      16    23    31     0     0       0
4 dep_time      1   907 1349.     1401  1744  2400     0     0       0
# … with 10 more rows
…
levels: level names

N : number of observation

freq : number of observation at the levels

ratio : percentage of observation at the levels

rank : rank of occupancy ratio of levels

`diagnose_category() can diagnose all categorical variables of flights as follows.:

diagnose_category(flights)
# A tibble: 43 x 6
  variables levels      N  freq ratio  rank
  <chr>     <chr>   <int> <int> <dbl> <int>
1 carrier   UA     336776 58665  17.4     1
2 carrier   B6     336776 54635  16.2     2
3 carrier   EV     336776 54173  16.1     3
4 carrier   DL     336776 48110  14.3     4
# … with 39 more rows
In collaboration with filter() in the dplyr package, we can see that the tailnum variable is ranked in top 1 with 2,512 missing values in the case where the missing value is included in the top 10:

diagnose_category(flights) %>% 
  filter(is.na(levels))
# A tibble: 1 x 6
  variables levels      N  freq ratio  rank
  <chr>     <chr>   <int> <int> <dbl> <int>
1 tailnum   <NA>   336776  2512 0.746     1

The following example returns a list where the level’s relative percentage is 0.01% or less. Note that the value of the top argument is set to a large value such as 500. If the default value of 10 was used, values below 0.01% would not be included in the list:

flights %>%
  diagnose_category(top = 500)  %>%
  filter(ratio <= 0.01)
# A tibble: 10 x 6
  variables levels      N  freq   ratio  rank
  <chr>     <chr>   <int> <int>   <dbl> <int>
1 carrier   OO     336776    32 0.00950    16
2 dest      JAC    336776    25 0.00742    97
3 dest      PSP    336776    19 0.00564    98
4 dest      EYW    336776    17 0.00505    99
# … with 6 more rows
…
outliers_cnt : number of outliers

outliers_ratio : percent of outliers

outliers_mean : arithmetic average of outliers

with_mean : arithmetic average of with outliers

without_mean : arithmetic average of without outliers

diagnose_outlier() can diagnose outliers of all numerical variables on flights as follows:

diagnose_outlier(flights)
# A tibble: 14 x 6
  variables outliers_cnt outliers_ratio outliers_mean with_mean without_mean
  <chr>            <int>          <dbl>         <dbl>     <dbl>        <dbl>
1 year                 0              0           NaN   2013         2013   
2 month                0              0           NaN      6.55         6.55
3 day                  0              0           NaN     15.7         15.7 
4 dep_time             0              0           NaN   1349.        1349.  
# … with 10 more rows

Numeric variables that contained outliers are easily found with filter().:

diagnose_outlier(flights) %>% 
  filter(outliers_cnt > 0) 
# A tibble: 5 x 6
  variables outliers_cnt outliers_ratio outliers_mean with_mean without_mean
  <chr>            <int>          <dbl>         <dbl>     <dbl>        <dbl>
1 dep_delay        43216      12.8               93.1     12.6         0.444
2 arr_delay        27880       8.28             121.       6.90       -3.69 
3 flight               1       0.000297        8500     1972.       1972.   
4 air_time          5448       1.62             400.     151.        146.   
# … with 1 more row
…
# connect DBMS
con_sqlite <- DBI::dbConnect(RSQLite::SQLite(), ":memory:")

# copy carseats to the DBMS with a table named TB_CARSEATS
copy_to(con_sqlite, carseats, name = "TB_CARSEATS", overwrite = TRUE)

Diagnose data quality of variables in the DBMS

Use dplyr::tbl() to create a tbl_dbi object, then use it as a data frame object. That is, the data argument of all diagnose function is specified as tbl_dbi object instead of data frame object.

# Diagnosis of all columns
con_sqlite %>% 
  tbl("TB_CARSEATS") %>% 
  diagnose()
# A tibble: 11 x 6
  variables   types  missing_count missing_percent unique_count unique_rate
  <chr>       <chr>          <dbl>           <dbl>        <int>       <dbl>
1 Sales       double             0               0          336       0.84 
2 CompPrice   double             0               0           73       0.182
3 Income      double            20               5           99       0.248
4 Advertising double             0               0           28       0.07 
# … with 7 more rows
…
# Positions values select columns, and In-memory mode and collect size is 200
con_sqlite %>% 
  tbl("TB_CARSEATS") %>% 
  diagnose(-8, -9, -10, in_database = FALSE, collect_size = 200)
# A tibble: 8 x 6
  variables   types   missing_count missing_percent unique_count unique_rate
  <chr>       <chr>           <int>           <dbl>        <int>       <dbl>
1 Sales       numeric             0               0          182       0.91 
2 CompPrice   numeric             0               0           65       0.325
3 Income      numeric             8               4           83       0.415
4 Advertising numeric             0               0           23       0.115
# … with 4 more rows
…
# Positions values select variables
con_sqlite %>% 
  tbl("TB_CARSEATS") %>% 
  diagnose_category(-7)
# A tibble: 5 x 6
  variables levels     N  freq ratio  rank
  <chr>     <chr>  <int> <int> <dbl> <int>
1 Urban     Yes      400   280 70        1
2 Urban     No       400   115 28.7      2
3 Urban     <NA>     400     5  1.25     3
4 US        Yes      400   258 64.5      1
# … with 1 more row

Diagnose data quality of numerical variables in the DBMS

# Diagnosis of all numerical variables
con_sqlite %>% 
  tbl("TB_CARSEATS") %>% 
  diagnose_numeric()
# A tibble: 8 x 10
  variables     min     Q1   mean median     Q3   max  zero minus outlier
  <chr>       <dbl>  <dbl>  <dbl>  <dbl>  <dbl> <dbl> <int> <int>   <int>
1 Sales           0   5.39   7.50   7.49   9.32  16.3     1     0       2
2 CompPrice      77 115    125.   125    135    175       0     0       2
3 Income         21  42     68.1   69     90.2  120       0     0       0
4 Advertising     0   0      6.64   5     12     29     144     0       0
# … with 4 more rows
…
