Data Transformation • dlookr
…
# -------------------------
# Using pipes & dplyr
# -------------------------
library(dplyr)

carseats %>%
 mutate(Income_bin = binning(carseats$Income) %>% 
                     extract()) %>%
 group_by(ShelveLoc, Income_bin) %>%
 summarise(freq = n()) %>%
 arrange(desc(freq)) %>%
 head(10)
`summarise()` has grouped output by 'ShelveLoc'. You can override using the `.groups` argument.
# A tibble: 10 x 3
# Groups:   ShelveLoc [1]
  ShelveLoc Income_bin  freq
  <fct>     <ord>      <int>
1 Medium    [21,30]       25
2 Medium    (62,69]       24
3 Medium    (48,62]       23
4 Medium    (39,48]       21
# … with 6 more rows
…
