Compare numerical variables — compare_numeric • dlookr
…
# Generate data for the example
carseats <- ISLR::Carseats
carseats[sample(seq(NROW(carseats)), 20), "Income"] <- NA
carseats[sample(seq(NROW(carseats)), 5), "Urban"] <- NA

library(dplyr)

# Compare the all numerical variables
all_var <- compare_numeric(carseats)

# Print compare_numeric class object
all_var
#> $correlation
#> # A tibble: 28 x 3
#>    var1      var2        coef_corr
#>    <chr>     <chr>           <dbl>
#>  1 Sales     CompPrice      0.0641
#>  2 Sales     Income         0.152 
#>  3 Sales     Advertising    0.270 
#>  4 Sales     Population     0.0505
#>  5 Sales     Price         -0.445 
#>  6 Sales     Age           -0.232 
#>  7 Sales     Education     -0.0520
#>  8 CompPrice Income        -0.0807
#>  9 CompPrice Advertising   -0.0242
#> 10 CompPrice Population    -0.0947
#> # … with 18 more rows
#> 
#> $linear
#> # A tibble: 28 x 14
#>    var1  var2  r.squared adj.r.squared sigma statistic  p.value    df logLik
#>    <chr> <chr>     <dbl>         <dbl> <dbl>     <dbl>    <dbl> <dbl>  <dbl>
#>  1 Sales Comp…  0.00411      0.00160    2.82     1.64  2.01e- 1     1  -982.
#>  2 Sales Inco…  0.0232       0.0206     2.82     8.96  2.94e- 3     1  -932.
#>  3 Sales Adve…  0.0726       0.0703     2.72    31.2   4.38e- 8     1  -967.
#>  4 Sales Popu…  0.00255      0.0000412  2.82     1.02  3.14e- 1     1  -982.
#>  5 Sales Price  0.198        0.196      2.53    98.2   7.62e-21     1  -938.
#>  6 Sales Age    0.0537       0.0514     2.75    22.6   2.79e- 6     1  -971.
#>  7 Sales Educ…  0.00270      0.000194   2.82     1.08  3.00e- 1     1  -982.
#>  8 Comp… Inco…  0.00651      0.00388   15.4      2.48  1.17e- 1     1 -1577.
#>  9 Comp… Adve…  0.000586    -0.00193   15.3      0.233 6.29e- 1     1 -1659.
#> 10 Comp… Popu…  0.00897      0.00648   15.3      3.60  5.84e- 2     1 -1657.
#> # … with 18 more rows, and 5 more variables: AIC <dbl>, BIC <dbl>,
#> #   deviance <dbl>, df.residual <int>, nobs <int>
…
