Compute the correlation coefficient between two numerical data — correlate.tbl_dbi • dlookr
…
# \donttest{
library(dplyr)

# connect DBMS
con_sqlite <- DBI::dbConnect(RSQLite::SQLite(), ":memory:")

# copy heartfailure to the DBMS with a table named TB_HEARTFAILURE
copy_to(con_sqlite, heartfailure, name = "TB_HEARTFAILURE", overwrite = TRUE)

# Using pipes ---------------------------------
# Correlation coefficients of all numerical variables
con_sqlite %>%
  tbl("TB_HEARTFAILURE") %>%
  correlate()
#> # A tibble: 42 x 3
#>    var1              var2       coef_corr
#>    <fct>             <fct>          <dbl>
#>  1 cpk_enzyme        age          -0.0814
#>  2 ejection_fraction age           0.0602
#>  3 platelets         age          -0.0525
#>  4 creatinine        age           0.159 
#>  5 sodium            age          -0.0459
#>  6 time              age          -0.224 
#>  7 age               cpk_enzyme   -0.0814
#>  8 ejection_fraction cpk_enzyme   -0.0441
#>  9 platelets         cpk_enzyme    0.0245
#> 10 creatinine        cpk_enzyme   -0.0164
#> # … with 32 more rows
…
# Negative values to drop variables, and In-memory mode and collect size is 200
con_sqlite %>%
  tbl("TB_HEARTFAILURE") %>%
  correlate(-platelets, -sodium, collect_size = 200)
#> # A tibble: 30 x 3
#>    var1              var2              coef_corr
#>    <fct>             <fct>                 <dbl>
#>  1 cpk_enzyme        age                -0.0946 
#>  2 ejection_fraction age                 0.0903 
#>  3 creatinine        age                 0.208  
#>  4 time              age                -0.199  
#>  5 age               cpk_enzyme         -0.0946 
#>  6 ejection_fraction cpk_enzyme         -0.0564 
#>  7 creatinine        cpk_enzyme          0.0122 
#>  8 time              cpk_enzyme          0.00421
#>  9 age               ejection_fraction   0.0903 
#> 10 cpk_enzyme        ejection_fraction  -0.0564 
#> # … with 20 more rows
…
# Negative values to drop variables
con_sqlite %>%
  tbl("TB_HEARTFAILURE") %>%
  correlate(-1, -2, -3, -5, -6)
#> # A tibble: 24 x 3
#>    var1       var2              coef_corr
#>    <fct>      <fct>                 <dbl>
#>  1 platelets  age                -0.0525 
#>  2 creatinine age                 0.159  
#>  3 sodium     age                -0.0459 
#>  4 time       age                -0.224  
#>  5 platelets  cpk_enzyme          0.0245 
#>  6 creatinine cpk_enzyme         -0.0164 
#>  7 sodium     cpk_enzyme          0.0596 
#>  8 time       cpk_enzyme         -0.00935
#>  9 platelets  ejection_fraction   0.0722 
#> 10 creatinine ejection_fraction  -0.0113 
#> # … with 14 more rows

# ---------------------------------------------
# Correlation coefficient
# that eliminates redundant combination of variables
con_sqlite %>%
  tbl("TB_HEARTFAILURE") %>%
  correlate() %>%
  filter(as.integer(var1) > as.integer(var2))
#> # A tibble: 21 x 3
#>    var1              var2       coef_corr
#>    <fct>             <fct>          <dbl>
#>  1 cpk_enzyme        age          -0.0814
#>  2 ejection_fraction age           0.0602
#>  3 platelets         age          -0.0525
#>  4 creatinine        age           0.159 
#>  5 sodium            age          -0.0459
#>  6 time              age          -0.224 
#>  7 ejection_fraction cpk_enzyme   -0.0441
#>  8 platelets         cpk_enzyme    0.0245
#>  9 creatinine        cpk_enzyme   -0.0164
#> 10 sodium            cpk_enzyme    0.0596
#> # … with 11 more rows
…
