Compute the correlation coefficient between two variable — correlate • dlookr
…
pval : the p-value for the test

coef_corr : theil's U correlation coefficient (Uncertainty Coefficient).

    See also

    cor, summary.correlate, plot.correlate.

    Examples

# \donttest{
# Correlation coefficients of all numerical variables
tab_corr <- correlate(heartfailure)
tab_corr
#> # A tibble: 42 × 3
#>    var1              var2       coef_corr
#>    <fct>             <fct>          <dbl>
#>  1 cpk_enzyme        age          -0.0814
#>  2 ejection_fraction age           0.0602
#>  3 platelets         age          -0.0525
#>  4 creatinine        age           0.159 
#>  5 sodium            age          -0.0459
#>  6 time              age          -0.224 
#>  7 age               cpk_enzyme   -0.0814
#>  8 ejection_fraction cpk_enzyme   -0.0441
#>  9 platelets         cpk_enzyme    0.0245
#> 10 creatinine        cpk_enzyme   -0.0164
#> # ℹ 32 more rows
…
# Using dplyr::grouped_dt
library(dplyr)

gdata <- group_by(heartfailure, smoking, death_event)
correlate(gdata)
#> # A tibble: 168 × 5
#>    smoking death_event var1              var2       coef_corr
#>    <fct>   <fct>       <fct>             <fct>          <dbl>
#>  1 No      No          cpk_enzyme        age          -0.0393
#>  2 No      No          ejection_fraction age           0.0749
#>  3 No      No          platelets         age          -0.0579
#>  4 No      No          creatinine        age           0.199 
#>  5 No      No          sodium            age          -0.0427
#>  6 No      No          time              age          -0.0193
#>  7 No      No          age               cpk_enzyme   -0.0393
#>  8 No      No          ejection_fraction cpk_enzyme   -0.0819
#>  9 No      No          platelets         cpk_enzyme    0.0610
#> 10 No      No          creatinine        cpk_enzyme   -0.0339
#> # ℹ 158 more rows

# Using pipes ---------------------------------
# Correlation coefficients of all numerical variables
heartfailure %>%
  correlate()
#> # A tibble: 42 × 3
#>    var1              var2       coef_corr
#>    <fct>             <fct>          <dbl>
#>  1 cpk_enzyme        age          -0.0814
#>  2 ejection_fraction age           0.0602
#>  3 platelets         age          -0.0525
#>  4 creatinine        age           0.159 
#>  5 sodium            age          -0.0459
#>  6 time              age          -0.224 
#>  7 age               cpk_enzyme   -0.0814
#>  8 ejection_fraction cpk_enzyme   -0.0441
#>  9 platelets         cpk_enzyme    0.0245
#> 10 creatinine        cpk_enzyme   -0.0164
#> # ℹ 32 more rows
…
# ---------------------------------------------
# Correlation coefficient
# that eliminates redundant combination of variables
heartfailure %>%
  correlate() %>%
  filter(as.integer(var1) > as.integer(var2))
#> # A tibble: 21 × 3
#>    var1              var2       coef_corr
#>    <fct>             <fct>          <dbl>
#>  1 cpk_enzyme        age          -0.0814
#>  2 ejection_fraction age           0.0602
#>  3 platelets         age          -0.0525
#>  4 creatinine        age           0.159 
#>  5 sodium            age          -0.0459
#>  6 time              age          -0.224 
#>  7 ejection_fraction cpk_enzyme   -0.0441
#>  8 platelets         cpk_enzyme    0.0245
#>  9 creatinine        cpk_enzyme   -0.0164
#> 10 sodium            cpk_enzyme    0.0596
#> # ℹ 11 more rows
…
