Diagnose data quality of variables in the DBMS — diagnose.tbl_dbi • dlookr
…
# Using pipes & dplyr -------------------------
# Diagnosis of missing variables
con_sqlite %>% 
  tbl("TB_JOBCHANGE") %>% 
  group_by(job_chnge) %>% 
  diagnose()
#> # A tibble: 28 × 8
#>    variables           types  job_chnge data_count missing_count missing_percent
#>    <chr>               <chr>  <chr>          <int>         <dbl>           <dbl>
#>  1 enrollee_id         chara… No             14381             0             0  
#>  2 enrollee_id         chara… Yes             4777             0             0  
#>  3 city                chara… No             14381             0             0  
#>  4 city                chara… Yes             4777             0             0  
#>  5 city_dev_index      double No             14381             0             0  
#>  6 city_dev_index      double Yes             4777             0             0  
#>  7 gender              chara… No             14381          3119            21.7
#>  8 gender              chara… Yes             4777          1389            29.1
#>  9 relevent_experience chara… No             14381             0             0  
#> 10 relevent_experience chara… Yes             4777             0             0  
#> # ℹ 18 more rows
#> # ℹ 2 more variables: unique_count <int>, unique_rate <dbl>
…
