Diagnose data quality of categorical variables in the DBMS — diagnose_category.tbl_dbi • dlookr
…
# \donttest{
library(dplyr)

# connect DBMS
con_sqlite <- DBI::dbConnect(RSQLite::SQLite(), ":memory:")

# copy jobchange to the DBMS with a table named TB_JOBCHANGE
copy_to(con_sqlite, jobchange, name = "TB_JOBCHANGE", overwrite = TRUE)

# Using pipes ---------------------------------
# Diagnosis of all categorical variables
con_sqlite %>%
  tbl("TB_JOBCHANGE") %>%
  diagnose_category()
#> # A tibble: 19,226 x 6
#>    variables   levels     N  freq   ratio  rank
#>    <chr>       <chr>  <int> <int>   <dbl> <int>
#>  1 enrollee_id 9998   19158     1 0.00522     1
#>  2 enrollee_id 9995   19158     1 0.00522     1
#>  3 enrollee_id 9992   19158     1 0.00522     1
#>  4 enrollee_id 999    19158     1 0.00522     1
#>  5 enrollee_id 9989   19158     1 0.00522     1
#>  6 enrollee_id 9988   19158     1 0.00522     1
#>  7 enrollee_id 9987   19158     1 0.00522     1
#>  8 enrollee_id 9986   19158     1 0.00522     1
#>  9 enrollee_id 9985   19158     1 0.00522     1
#> 10 enrollee_id 9984   19158     1 0.00522     1
#> # … with 19,216 more rows
…
# Negative values to drop variables, and In-memory mode
con_sqlite %>%
  tbl("TB_JOBCHANGE") %>%
  diagnose_category(-company_type, -job_chnge, in_database = FALSE)
#> # A tibble: 19,217 x 6
#>    variables   levels     N  freq   ratio  rank
#>    <chr>       <chr>  <int> <int>   <dbl> <int>
#>  1 enrollee_id 1      19158     1 0.00522     1
#>  2 enrollee_id 10     19158     1 0.00522     1
#>  3 enrollee_id 10000  19158     1 0.00522     1
#>  4 enrollee_id 10001  19158     1 0.00522     1
#>  5 enrollee_id 10002  19158     1 0.00522     1
#>  6 enrollee_id 10003  19158     1 0.00522     1
#>  7 enrollee_id 10004  19158     1 0.00522     1
#>  8 enrollee_id 10005  19158     1 0.00522     1
#>  9 enrollee_id 10006  19158     1 0.00522     1
#> 10 enrollee_id 10008  19158     1 0.00522     1
#> # … with 19,207 more rows
…
# Negative values to drop variables
con_sqlite %>%
  tbl("TB_JOBCHANGE") %>%
  diagnose_category(-7)
#> # A tibble: 19,220 x 6
#>    variables   levels     N  freq   ratio  rank
#>    <chr>       <chr>  <int> <int>   <dbl> <int>
#>  1 enrollee_id 9998   19158     1 0.00522     1
#>  2 enrollee_id 9995   19158     1 0.00522     1
#>  3 enrollee_id 9992   19158     1 0.00522     1
#>  4 enrollee_id 999    19158     1 0.00522     1
#>  5 enrollee_id 9989   19158     1 0.00522     1
#>  6 enrollee_id 9988   19158     1 0.00522     1
#>  7 enrollee_id 9987   19158     1 0.00522     1
#>  8 enrollee_id 9986   19158     1 0.00522     1
#>  9 enrollee_id 9985   19158     1 0.00522     1
#> 10 enrollee_id 9984   19158     1 0.00522     1
#> # … with 19,210 more rows

# Top rank levels with top argument
con_sqlite %>%
  tbl("TB_JOBCHANGE") %>%
  diagnose_category(top = 2)
#> # A tibble: 19,180 x 6
#>    variables   levels     N  freq   ratio  rank
#>    <chr>       <chr>  <int> <int>   <dbl> <int>
#>  1 enrollee_id 9998   19158     1 0.00522     1
#>  2 enrollee_id 9995   19158     1 0.00522     1
#>  3 enrollee_id 9992   19158     1 0.00522     1
#>  4 enrollee_id 999    19158     1 0.00522     1
#>  5 enrollee_id 9989   19158     1 0.00522     1
#>  6 enrollee_id 9988   19158     1 0.00522     1
#>  7 enrollee_id 9987   19158     1 0.00522     1
#>  8 enrollee_id 9986   19158     1 0.00522     1
#>  9 enrollee_id 9985   19158     1 0.00522     1
#> 10 enrollee_id 9984   19158     1 0.00522     1
#> # … with 19,170 more rows
…
