Diagnose data quality of categorical variables — diagnose_category • dlookr
…
# extract rows that less than equal rank 3
# default of type argument is "n"
jobchange %>% 
  diagnose_category(enrollee_id, top = 3)
#> # A tibble: 3 × 6
#>   variables   levels     N  freq   ratio  rank
#>   <chr>       <chr>  <int> <int>   <dbl> <int>
#> 1 enrollee_id 1      19158     1 0.00522     1
#> 2 enrollee_id 10     19158     1 0.00522     1
#> 3 enrollee_id 10000  19158     1 0.00522     1

# extract rows that less than equal rank 3
jobchange %>% 
  diagnose_category(enrollee_id, top = 3, type = "rank")
#> # A tibble: 19,158 × 6
#>    variables   levels     N  freq   ratio  rank
#>    <chr>       <chr>  <int> <int>   <dbl> <int>
#>  1 enrollee_id 1      19158     1 0.00522     1
#>  2 enrollee_id 10     19158     1 0.00522     1
#>  3 enrollee_id 10000  19158     1 0.00522     1
#>  4 enrollee_id 10001  19158     1 0.00522     1
#>  5 enrollee_id 10002  19158     1 0.00522     1
#>  6 enrollee_id 10003  19158     1 0.00522     1
#>  7 enrollee_id 10004  19158     1 0.00522     1
#>  8 enrollee_id 10005  19158     1 0.00522     1
#>  9 enrollee_id 10006  19158     1 0.00522     1
#> 10 enrollee_id 10008  19158     1 0.00522     1
#> # ℹ 19,148 more rows
…
