Performs the Shapiro-Wilk test of normality — normality • dlookr
…
# death_eventing dplyr::grouped_dt
library(dplyr)

gdata <- group_by(heartfailure, smoking, death_event)
normality(gdata, "platelets")
#> # A tibble: 4 × 6
#>   variable  smoking death_event statistic      p_value sample
#>   <chr>     <fct>   <fct>           <dbl>        <dbl>  <dbl>
#> 1 platelets No      No              0.892 0.0000000161    137
#> 2 platelets No      Yes             0.987 0.704            66
#> 3 platelets Yes     No              0.834 0.000000404      66
#> 4 platelets Yes     Yes             0.900 0.00836          30
normality(gdata, sample = 250)
#> # A tibble: 28 × 6
#>    variable          smoking death_event statistic  p_value sample
#>    <chr>             <fct>   <fct>           <dbl>    <dbl>  <dbl>
#>  1 age               No      No              0.978 2.49e- 2    137
#>  2 age               No      Yes             0.955 1.70e- 2     66
#>  3 age               Yes     No              0.972 1.46e- 1     66
#>  4 age               Yes     Yes             0.967 4.61e- 1     30
#>  5 cpk_enzyme        No      No              0.715 5.49e-15    137
#>  6 cpk_enzyme        No      Yes             0.458 3.20e-14     66
#>  7 cpk_enzyme        Yes     No              0.563 1.03e-12     66
#>  8 cpk_enzyme        Yes     Yes             0.391 4.50e-10     30
#>  9 ejection_fraction No      No              0.918 4.26e- 7    137
#> 10 ejection_fraction No      Yes             0.941 3.44e- 3     66
#> # ℹ 18 more rows
…
