Summarizing Correlation Coefficient — summary.correlate • dlookr
…
    See also

    correlate, plot.correlate.

    Examples

# \donttest{
library(dplyr)

# Correlation type is "generic" ===============================
# Correlation coefficients of all numerical variables
corr_tab <- correlate(heartfailure)
corr_tab
#> # A tibble: 42 × 3
#>    var1              var2       coef_corr
#>    <fct>             <fct>          <dbl>
#>  1 cpk_enzyme        age          -0.0814
#>  2 ejection_fraction age           0.0602
#>  3 platelets         age          -0.0525
#>  4 creatinine        age           0.159 
#>  5 sodium            age          -0.0459
#>  6 time              age          -0.224 
#>  7 age               cpk_enzyme   -0.0814
#>  8 ejection_fraction cpk_enzyme   -0.0441
#>  9 platelets         cpk_enzyme    0.0245
#> 10 creatinine        cpk_enzyme   -0.0164
#> # ℹ 32 more rows
…
# Correlation type is "group" ===============================
##-----------------------------------------------------------
# If the target variable is a categorical variable
# Using dplyr
corr_tab <- heartfailure %>%
  group_by(smoking, death_event) %>% 
  correlate() 

corr_tab
#> # A tibble: 168 × 5
#>    smoking death_event var1              var2       coef_corr
#>    <fct>   <fct>       <fct>             <fct>          <dbl>
#>  1 No      No          cpk_enzyme        age          -0.0393
#>  2 No      No          ejection_fraction age           0.0749
#>  3 No      No          platelets         age          -0.0579
#>  4 No      No          creatinine        age           0.199 
#>  5 No      No          sodium            age          -0.0427
#>  6 No      No          time              age          -0.0193
#>  7 No      No          age               cpk_enzyme   -0.0393
#>  8 No      No          ejection_fraction cpk_enzyme   -0.0819
#>  9 No      No          platelets         cpk_enzyme    0.0610
#> 10 No      No          creatinine        cpk_enzyme   -0.0339
#> # ℹ 158 more rows
…
